%YAML 1.1
%TAG !u! tag:unity3d.com,2011:
--- !u!1045 &1
EditorBuildSettings:
  m_ObjectHideFlags: 0
  serializedVersion: 2
  m_Scenes:
  - enabled: 1
    path: Assets/Scenes/MainMenu.unity
    guid: 3effc7df4a76289419a561bdf5446e90
  - enabled: 1
    path: Assets/Scenes/(ONE)WeighBeaker.unity
    guid: 95e95740e23d4b24a9ac5875fbb00e82
  - enabled: 1
    path: Assets/Scenes/Game2_Spatulas.unity
    guid: 6a6060c6898189248b85b27cbb99a138
  - enabled: 1
    path: Assets/Scenes/Game3_Cylinder.unity
    guid: 71f835e6c3191d24fa919ebf243a3555
  - enabled: 1
    path: Assets/Scenes/Game4_Beaker.unity
    guid: c174d982d655e344fb554452af029366
  - enabled: 1
    path: Assets/Scenes/Game5_HandGuide.unity
    guid: 1eb56d8a6bdfc834c9e3083ef61bfb45
  - enabled: 1
    path: Assets/Scenes/Game6_Catch.unity
    guid: 6f151fcb4707efb40a3b239cc2797879
  - enabled: 1
    path: Assets/Scenes/(SEVEN)Shake.unity
    guid: 5ac134697f0ee2e46805e38f8dfc5bd2
  - enabled: 1
    path: Assets/Scenes/(EIGHT)Extraction.unity
    guid: 17012c7fd3a6db341b54e927caa7323e
  - enabled: 1
    path: Assets/Scenes/(NINE)END.unity
    guid: ae3080cb13a073547a92515ef1cd4564
